%YAML 1.1
%TAG !u! tag:unity3d.com,2011:
--- !u!21 &2100000
Material:
  serializedVersion: 6
  m_ObjectHideFlags: 0
  m_CorrespondingSourceObject: {fileID: 0}
  m_PrefabInstance: {fileID: 0}
  m_PrefabAsset: {fileID: 0}
  m_Name: PolygonCity_Mat_04_B Suit2
  m_Shader: {fileID: 4800000, guid: 9baf30ce95c751649b14d96da3a4b4d5, type: 3}
  m_ShaderKeywords: _ _EMISSION _EMISSIVE_SIMPLE _METALLICGLOSSMAP _NORMALMAP _OUTLINE_NML
  m_LightmapFlags: 1
  m_EnableInstancingVariants: 0
  m_DoubleSidedGI: 0
  m_CustomRenderQueue: -1
  stringTagMap: {}
  disabledShaderPasses: []
  m_SavedProperties:
    serializedVersion: 3
    m_TexEnvs:
    - _1st_ShadeMap:
        m_Texture: {fileID: 0}
        m_Scale: {x: 1, y: 1}
        m_Offset: {x: 0, y: 0}
    - _2nd_ShadeMap:
        m_Texture: {fileID: 0}
        m_Scale: {x: 1, y: 1}
        m_Offset: {x: 0, y: 0}
    - _BakedNormal:
        m_Texture: {fileID: 0}
        m_Scale: {x: 1, y: 1}
        m_Offset: {x: 0, y: 0}
    - _BaseMap:
        m_Texture: {fileID: 0}
        m_Scale: {x: 1, y: 1}
        m_Offset: {x: 0, y: 0}
    - _BumpMap:
        m_Texture: {fileID: 2800000, guid: b993ae890161b184188e417d77e0e1a3, type: 3}
        m_Scale: {x: 1, y: 1}
        m_Offset: {x: 0, y: 0}
    - _DetailAlbedoMap:
        m_Texture: {fileID: 0}
        m_Scale: {x: 1, y: 1}
        m_Offset: {x: 0, y: 0}
    - _DetailMask:
        m_Texture: {fileID: 0}
        m_Scale: {x: 1, y: 1}
        m_Offset: {x: 0, y: 0}
    - _DetailNormalMap:
        m_Texture: {fileID: 0}
        m_Scale: {x: 1, y: 1}
        m_Offset: {x: 0, y: 0}
    - _EmissionMap:
        m_Texture: {fileID: 2800000, guid: ed8c76cfaa7f4f04da86bd288543e61c, type: 3}
        m_Scale: {x: 1, y: 1}
        m_Offset: {x: 0, y: 0}
    - _Emissive_Tex:
        m_Texture: {fileID: 0}
        m_Scale: {x: 1, y: 1}
        m_Offset: {x: 0, y: 0}
    - _HighColor_Tex:
        m_Texture: {fileID: 0}
        m_Scale: {x: 1, y: 1}
        m_Offset: {x: 0, y: 0}
    - _MainTex:
        m_Texture: {fileID: 2800000, guid: f5c04069b118ad443ae87371c6c4db24, type: 3}
        m_Scale: {x: 1, y: 1}
        m_Offset: {x: 0, y: 0}
    - _MatCap_Sampler:
        m_Texture: {fileID: 0}
        m_Scale: {x: 1, y: 1}
        m_Offset: {x: 0, y: 0}
    - _MetallicGlossMap:
        m_Texture: {fileID: 2800000, guid: 2da74f2130b2ca74faacbcaaa83c5a44, type: 3}
        m_Scale: {x: 1, y: 1}
        m_Offset: {x: 0, y: 0}
    - _NormalMap:
        m_Texture: {fileID: 0}
        m_Scale: {x: 1, y: 1}
        m_Offset: {x: 0, y: 0}
    - _NormalMapForMatCap:
        m_Texture: {fileID: 0}
        m_Scale: {x: 1, y: 1}
        m_Offset: {x: 0, y: 0}
    - _OcclusionMap:
        m_Texture: {fileID: 0}
        m_Scale: {x: 1, y: 1}
        m_Offset: {x: 0, y: 0}
    - _OutlineTex:
        m_Texture: {fileID: 0}
        m_Scale: {x: 1, y: 1}
        m_Offset: {x: 0, y: 0}
    - _Outline_Sampler:
        m_Texture: {fileID: 0}
        m_Scale: {x: 1, y: 1}
        m_Offset: {x: 0, y: 0}
    - _ParallaxMap:
        m_Texture: {fileID: 0}
        m_Scale: {x: 1, y: 1}
        m_Offset: {x: 0, y: 0}
    - _Set_1st_ShadePosition:
        m_Texture: {fileID: 0}
        m_Scale: {x: 1, y: 1}
        m_Offset: {x: 0, y: 0}
    - _Set_2nd_ShadePosition:
        m_Texture: {fileID: 0}
        m_Scale: {x: 1, y: 1}
        m_Offset: {x: 0, y: 0}
    - _Set_HighColorMask:
        m_Texture: {fileID: 0}
        m_Scale: {x: 1, y: 1}
        m_Offset: {x: 0, y: 0}
    - _Set_MatcapMask:
        m_Texture: {fileID: 0}
        m_Scale: {x: 1, y: 1}
        m_Offset: {x: 0, y: 0}
    - _Set_RimLightMask:
        m_Texture: {fileID: 0}
        m_Scale: {x: 1, y: 1}
        m_Offset: {x: 0, y: 0}
    - _ShadingGradeMap:
        m_Texture: {fileID: 0}
        m_Scale: {x: 1, y: 1}
        m_Offset: {x: 0, y: 0}
    m_Floats:
    - _1st2nd_Shades_Feather: 0.262
    - _1st_ShadeColor_Feather: 0.108
    - _1st_ShadeColor_Step: 0.643
    - _2nd_ShadeColor_Feather: 0.262
    - _2nd_ShadeColor_Step: 0.847
    - _Add_Antipodean_RimLight: 0
    - _Ap_RimLight_FeatherOff: 0
    - _Ap_RimLight_Power: 0.1
    - _BaseColor_Step: 0.643
    - _BaseShade_Feather: 0.108
    - _Base_Speed: 0
    - _BlurLevelMatcap: 0
    - _BlurLevelSGM: 0
    - _BumpScale: 1
    - _BumpScaleMatcap: 1
    - _CameraRolling_Stabilizer: 0
    - _ColorShift_Speed: 0
    - _CullMode: 2
    - _Cutoff: 0.5
    - _DetailNormalMapScale: 1
    - _DstBlend: 0
    - _EMISSIVE: 0
    - _EmissionScaleUI: 0
    - _Farthest_Distance: 100
    - _GI_Intensity: 0
    - _GlossMapScale: 1
    - _Glossiness: 0.5
    - _GlossyReflections: 1
    - _HighColor_Power: 0.552
    - _Inverse_MatcapMask: 0
    - _Inverse_Z_Axis_BLD: 1
    - _Is_BLD: 0
    - _Is_BakedNormal: 0
    - _Is_BlendAddToHiColor: 1
    - _Is_BlendAddToMatCap: 1
    - _Is_BlendBaseColor: 1
    - _Is_ColorShift: 0
    - _Is_Filter_HiCutPointLightColor: 1
    - _Is_Filter_LightColor: 0
    - _Is_LightColor_1st_Shade: 1
    - _Is_LightColor_2nd_Shade: 1
    - _Is_LightColor_Ap_RimLight: 1
    - _Is_LightColor_Base: 1
    - _Is_LightColor_HighColor: 1
    - _Is_LightColor_MatCap: 1
    - _Is_LightColor_Outline: 1
    - _Is_LightColor_RimLight: 1
    - _Is_NormalMapForMatCap: 0
    - _Is_NormalMapToBase: 0
    - _Is_NormalMapToHighColor: 0
    - _Is_NormalMapToRimLight: 0
    - _Is_Ortho: 0
    - _Is_OutlineTex: 0
    - _Is_PingPong_Base: 0
    - _Is_SpecularToHighColor: 1
    - _Is_UseTweakHighColorOnShadow: 0
    - _Is_UseTweakMatCapOnShadow: 0
    - _Is_ViewCoord_Scroll: 0
    - _Is_ViewShift: 0
    - _LightDirection_MaskOn: 0
    - _MatCap: 0
    - _Metallic: 0
    - _Mode: 0
    - _Nearest_Distance: 0.5
    - _OUTLINE: 0
    - _OcclusionStrength: 1
    - _Offset_X_Axis_BLD: -0.05
    - _Offset_Y_Axis_BLD: 0.09
    - _Offset_Z: 0
    - _Outline_Width: 150
    - _Parallax: 0.02
    - _RimLight: 1
    - _RimLight_FeatherOff: 0
    - _RimLight_InsideMask: 0.572
    - _RimLight_Power: 1
    - _Rotate_EmissiveUV: 0
    - _Rotate_MatCapUV: 0
    - _Rotate_NormalMapForMatCapUV: 0
    - _Scroll_EmissiveU: 0
    - _Scroll_EmissiveV: 0
    - _Set_SystemShadowsToBase: 1
    - _ShadeColor_Step: 0.847
    - _SmoothnessTextureChannel: 0
    - _SpecularHighlights: 1
    - _SrcBlend: 1
    - _StepOffset: 0
    - _TweakHighColorOnShadow: 0
    - _TweakMatCapOnShadow: 0
    - _Tweak_HighColorMaskLevel: 1
    - _Tweak_LightDirection_MaskLevel: 0
    - _Tweak_MatCapUV: 0
    - _Tweak_MatcapMaskLevel: 0
    - _Tweak_RimLightMaskLevel: 0
    - _Tweak_ShadingGradeMapLevel: 0
    - _Tweak_SystemShadowsLevel: 0
    - _UVSec: 0
    - _Unlit_Intensity: 1
    - _Use_1stAs2nd: 0
    - _Use_BaseAs1st: 0
    - _ZWrite: 1
    - _simpleUI: 0
    - _utsTechnique: 0
    - _utsVersion: 2.075
    m_Colors:
    - _1st_ShadeColor: {r: 0.43854573, g: 0.56922245, b: 0.6886792, a: 1}
    - _2nd_ShadeColor: {r: 0.29276434, g: 0.33227795, b: 0.4056604, a: 1}
    - _Ap_RimLightColor: {r: 1, g: 1, b: 1, a: 1}
    - _BaseColor: {r: 1, g: 1, b: 1, a: 1}
    - _Color: {r: 1, g: 1, b: 1, a: 1}
    - _ColorShift: {r: 0, g: 0, b: 0, a: 1}
    - _EmissionColor: {r: 0, g: 0, b: 0, a: 0}
    - _EmissionColorUI: {r: 1, g: 1, b: 1, a: 1}
    - _Emissive_Color: {r: 0, g: 0, b: 0, a: 1}
    - _HighColor: {r: 0.36862746, g: 0.33401763, b: 0.28627452, a: 1}
    - _MatCapColor: {r: 1, g: 1, b: 1, a: 1}
    - _Outline_Color: {r: 0.2909843, g: 0.28813636, b: 0.3301887, a: 1}
    - _RimLightColor: {r: 0.5849056, g: 0.57249016, b: 0.51041293, a: 1}
    - _ViewShift: {r: 0, g: 0, b: 0, a: 1}
