%YAML 1.1
%TAG !u! tag:unity3d.com,2011:
--- !u!114 &11400000
MonoBehaviour:
  m_ObjectHideFlags: 0
  m_CorrespondingSourceObject: {fileID: 0}
  m_PrefabInstance: {fileID: 0}
  m_PrefabAsset: {fileID: 0}
  m_GameObject: {fileID: 0}
  m_Enabled: 1
  m_EditorHideFlags: 0
  m_Script: {fileID: -1252790098, guid: 448d62fcada76fd4ab5702190add98fd, type: 3}
  m_Name: EditorStates
  m_EditorClassIdentifier: 
  GeneralStates:
    LoadedProjectGUID:
      valueInternal: 9fe5d6ebb8af71948a64d5f312431a79
    RecentlyOpenedProjectGUIDsList:
    - valueInternal: 9fe5d6ebb8af71948a64d5f312431a79
    - valueInternal: ec80315811f2bf242b4af6530252e081
    - valueInternal: 6d49708ad4b5e5e4782a2dad9cbc601d
